# This file uses centimeters as units for non-parametric coordinates.

mtllib horseShoe.mtl
g default
v 0.000147 0.276488 -0.014423
v -0.053641 0.257186 -0.014498
v -0.093054 0.208701 -0.014672
v -0.103259 0.143289 -0.014898
v -0.090555 0.075517 -0.015107
v -0.066113 0.015633 -0.015305
v 0.062286 0.015633 -0.015268
v 0.088591 0.075286 -0.015059
v 0.103268 0.142993 -0.014836
v 0.093206 0.208444 -0.014618
v 0.053896 0.257037 -0.014467
v 0.000138 0.276353 0.009202
v -0.053650 0.257051 0.009127
v -0.093063 0.208566 0.008953
v -0.103268 0.143154 0.008727
v -0.090564 0.075382 0.008518
v -0.066126 0.015633 0.008321
v 0.062273 0.015633 0.008357
v 0.088582 0.075152 0.008566
v 0.103260 0.142858 0.008789
v 0.093197 0.208310 0.009007
v 0.053887 0.256903 0.009158
v 0.000199 0.319173 0.009300
v -0.077126 0.294180 0.009208
v -0.133787 0.230092 0.008996
v -0.148458 0.143346 0.008720
v -0.133552 0.062699 0.008492
v -0.106974 0.000756 0.008250
v 0.101881 0.000756 0.008295
v 0.131055 0.061598 0.008551
v 0.148447 0.142936 0.008796
v 0.133981 0.229738 0.009062
v 0.077470 0.293975 0.009246
v 0.000210 0.319325 -0.014325
v -0.077115 0.294332 -0.014417
v -0.133776 0.230244 -0.014629
v -0.148447 0.143498 -0.014905
v -0.133542 0.062851 -0.015134
v -0.106959 0.000756 -0.015375
v 0.101896 0.000756 -0.015331
v 0.131066 0.061750 -0.015075
v 0.148458 0.143089 -0.014829
v 0.133992 0.229890 -0.014564
v 0.077480 0.294128 -0.014379
v 0.000168 0.310654 0.009251
v -0.038464 0.308868 0.009254
v 0.038834 0.308765 0.009273
v 0.000163 0.310603 0.031693
v -0.038476 0.308817 0.021362
v 0.000194 0.319121 0.031742
v 0.038836 0.308714 0.021381
v -0.133542 0.062943 -0.031500
v -0.106960 0.000848 -0.031742
v -0.090556 0.075609 -0.031474
v -0.066113 0.015725 -0.031672
v 0.101904 0.000851 -0.031697
v 0.131073 0.061845 -0.031441
v 0.062294 0.015728 -0.031635
v 0.088598 0.075381 -0.031425
vt 0.867551 0.677414
vt 0.858797 0.773128
vt 0.828765 0.762001
vt 0.833112 0.680169
vt 0.841681 0.576282
vt 0.807017 0.585027
vt 0.765725 0.472065
vt 0.812008 0.563212
vt 0.789390 0.573386
vt 0.746516 0.483816
vt 0.671060 0.561498
vt 0.718451 0.467966
vt 0.742962 0.478517
vt 0.695659 0.571935
vt 0.609851 0.676315
vt 0.637941 0.573532
vt 0.673008 0.583016
vt 0.644662 0.679185
vt 0.620034 0.773148
vt 0.650267 0.761393
vt 0.116741 0.303860
vt 0.134892 0.409825
vt 0.069406 0.445644
vt 0.043380 0.305347
vt 0.135563 0.193368
vt 0.065360 0.173939
vt 0.464930 0.311100
vt 0.447816 0.199816
vt 0.518048 0.182059
vt 0.538148 0.315652
vt 0.969139 0.672433
vt 0.946896 0.814468
vt 0.917420 0.801496
vt 0.934598 0.674295
vt 0.941358 0.544583
vt 0.906373 0.552826
vt 0.905288 0.403982
vt 0.954521 0.499106
vt 0.921170 0.516449
vt 0.871916 0.421141
vt 0.524513 0.494431
vt 0.575804 0.398742
vt 0.609357 0.416608
vt 0.558006 0.512468
vt 0.506870 0.671992
vt 0.537417 0.540591
vt 0.572731 0.549483
vt 0.541835 0.673923
vt 0.848859 0.433173
vt 0.898040 0.528426
vt 0.832393 0.552884
vt 0.786190 0.461734
vt 0.581233 0.524935
vt 0.632513 0.429118
vt 0.694921 0.456162
vt 0.647531 0.549610
vt 0.759591 0.404021
vt 0.822424 0.375261
vt 0.838091 0.409433
vt 0.775301 0.438134
vt 0.720721 0.397080
vt 0.705472 0.431986
vt 0.642970 0.404884
vt 0.658175 0.369963
vt 0.199686 0.487601
vt 0.162480 0.547977
vt 0.689796 0.817687
vt 0.672221 0.841708
vt 0.442336 0.416219
vt 0.506269 0.454742
vt 0.531264 0.816414
vt 0.560954 0.802813
vt 0.641697 0.892362
vt 0.409005 0.553103
vt 0.374332 0.491226
vt 0.625389 0.918568
vt 0.686639 0.936128
vt 0.684741 0.953778
vt 0.741171 0.943505
vt 0.741423 0.974061
vt 0.839368 0.891089
vt 0.808474 0.841424
vt 0.790913 0.817922
vt 0.855887 0.916765
vt 0.740987 0.916449
vt 0.740721 0.863931
vt 0.740665 0.835838
vt 0.795392 0.935262
vt 0.797614 0.952815
vt 0.284543 0.605668
vt 0.344933 0.592657
vt 0.284331 0.618590
vt 0.224826 0.590170
vt 0.224951 0.570721
vt 0.286401 0.518190
vt 0.285268 0.572052
vt 0.345645 0.573225
vt 0.173622 0.095553
vt 0.106811 0.072512
vt 0.411081 0.100618
vt 0.476821 0.080443
vn 0.988048 -0.154146 -0.000501
vn 0.988048 -0.154146 -0.000501
vn 0.988048 -0.154146 -0.000501
vn 0.988048 -0.154146 -0.000501
vn 0.982880 0.184241 0.001421
vn 0.982880 0.184241 0.001421
vn 0.982880 0.184241 0.001421
vn 0.982880 0.184241 0.001421
vn 0.925766 0.378093 0.001747
vn 0.925766 0.378093 0.001748
vn 0.925709 0.378233 0.001505
vn 0.925709 0.378233 0.001505
vn -0.914887 0.403708 0.001214
vn -0.914887 0.403708 0.001213
vn -0.914814 0.403876 0.000725
vn -0.914814 0.403876 0.000725
vn -0.977299 0.211864 0.000838
vn -0.977299 0.211864 0.000838
vn -0.977299 0.211864 0.000838
vn -0.977299 0.211864 0.000838
vn -0.988387 -0.151955 -0.001243
vn -0.988387 -0.151955 -0.001243
vn -0.988387 -0.151955 -0.001243
vn -0.988387 -0.151955 -0.001243
vn -0.000178 -0.003087 0.999995
vn -0.000524 -0.003057 0.999995
vn -0.000533 -0.003044 0.999995
vn -0.000183 -0.003090 0.999995
vn 0.000037 -0.002942 0.999996
vn -0.000178 -0.003087 0.999995
vn -0.000183 -0.003090 0.999995
vn 0.000037 -0.002942 0.999996
vn -0.000150 -0.003112 0.999995
vn -0.000366 -0.003062 0.999995
vn -0.000366 -0.003062 0.999995
vn -0.000142 -0.003114 0.999995
vn -0.985999 0.166753 0.000632
vn -0.985999 0.166753 0.000632
vn -0.985999 0.166753 0.000632
vn -0.985999 0.166753 0.000632
vn -0.983345 -0.181743 -0.001609
vn -0.983345 -0.181743 -0.001609
vn -0.983345 -0.181743 -0.001609
vn -0.983345 -0.181743 -0.001609
vn -0.919143 -0.393920 -0.001770
vn -0.919143 -0.393920 -0.001770
vn -0.919210 -0.393764 -0.001940
vn -0.919210 -0.393764 -0.001940
vn 0.901924 -0.431894 -0.000898
vn 0.901924 -0.431894 -0.000898
vn 0.902016 -0.431701 -0.001384
vn 0.902016 -0.431701 -0.001385
vn 0.977895 -0.209097 -0.000912
vn 0.977895 -0.209097 -0.000912
vn 0.977895 -0.209097 -0.000912
vn 0.977895 -0.209097 -0.000912
vn 0.000184 0.003090 -0.999995
vn 0.000534 0.003043 -0.999995
vn 0.000525 0.003056 -0.999995
vn 0.000180 0.003087 -0.999995
vn -0.000035 0.002943 -0.999996
vn 0.000184 0.003090 -0.999995
vn 0.000180 0.003087 -0.999995
vn -0.000035 0.002943 -0.999996
vn -0.000022 0.003592 -0.999994
vn -0.000022 0.003592 -0.999994
vn -0.000022 0.003592 -0.999994
vn -0.000022 0.003592 -0.999994
vn 0.000329 0.003708 -0.999993
vn 0.000329 0.003708 -0.999993
vn 0.000329 0.003708 -0.999993
vn 0.000329 0.003708 -0.999993
vn 0.000140 0.003114 -0.999995
vn 0.000365 0.003062 -0.999995
vn 0.000365 0.003062 -0.999995
vn 0.000149 0.003112 -0.999995
vn 0.342233 -0.939615 0.000202
vn 0.342233 -0.939615 0.000202
vn 0.342239 -0.939611 -0.002048
vn 0.342239 -0.939611 -0.002047
vn -0.351628 -0.936140 -0.000209
vn -0.351626 -0.936137 -0.002414
vn -0.351626 -0.936137 -0.002417
vn -0.351628 -0.936140 -0.000209
vn -0.000524 -0.003057 0.999995
vn -0.000507 -0.002519 0.999997
vn -0.000496 -0.002497 0.999997
vn -0.000533 -0.003044 0.999995
vn -0.777465 -0.628915 -0.003886
vn -0.777465 -0.628915 -0.003886
vn -0.777465 -0.628915 -0.003886
vn -0.777464 -0.628915 -0.003886
vn 0.000165 -0.002967 0.999996
vn -0.000150 -0.003112 0.999995
vn -0.000142 -0.003114 0.999995
vn 0.000172 -0.002953 0.999996
vn 0.986395 0.164388 0.001503
vn 0.986395 0.164388 0.001503
vn 0.986395 0.164388 0.001503
vn 0.986395 0.164388 0.001503
vn -0.000166 0.002967 -0.999996
vn -0.000173 0.002953 -0.999996
vn 0.000140 0.003114 -0.999995
vn 0.000149 0.003112 -0.999995
vn -0.000120 0.002539 -0.999997
vn -0.000173 0.002953 -0.999996
vn -0.000166 0.002967 -0.999996
vn -0.000127 0.002548 -0.999997
vn 0.000044 -0.002408 0.999997
vn 0.000058 -0.002429 0.999997
vn 0.000165 -0.002967 0.999996
vn 0.000172 -0.002953 0.999996
vn 0.750816 0.660496 0.004601
vn 0.750816 0.660496 0.004601
vn 0.750816 0.660496 0.004601
vn 0.750816 0.660496 0.004601
vn 0.357513 0.933888 0.006185
vn 0.357513 0.933888 0.006185
vn 0.357513 0.933888 0.006185
vn 0.260435 0.965487 0.002896
vn 0.285945 0.957400 -0.040261
vn 0.001306 0.999341 -0.036265
vn 0.001320 0.999995 0.002913
vn 0.000525 0.003056 -0.999995
vn 0.000534 0.003043 -0.999995
vn 0.000572 0.002627 -0.999996
vn 0.000576 0.002637 -0.999996
vn 0.775963 -0.630770 -0.003290
vn 0.775962 -0.630771 -0.003290
vn 0.775963 -0.630770 -0.003290
vn 0.775963 -0.630770 -0.003290
vn -0.749184 0.662351 0.003926
vn -0.749184 0.662351 0.003926
vn -0.749184 0.662351 0.003926
vn -0.749184 0.662351 0.003926
vn 0.000576 0.002637 -0.999996
vn 0.000572 0.002627 -0.999996
vn 0.000255 0.002348 -0.999997
vn 0.000255 0.002348 -0.999997
vn 0.337772 -0.941213 -0.005230
vn 0.337772 -0.941213 -0.005230
vn 0.337772 -0.941213 -0.005230
vn 0.337772 -0.941213 -0.005230
vn -0.340276 -0.940310 -0.005490
vn -0.340276 -0.940310 -0.005490
vn -0.340276 -0.940310 -0.005490
vn -0.340276 -0.940310 -0.005490
vn -0.355136 0.934796 0.005863
vn -0.355136 0.934796 0.005863
vn -0.355136 0.934796 0.005863
vn 0.001320 0.999995 0.002913
vn 0.001306 0.999341 -0.036265
vn -0.283401 0.958145 -0.040533
vn -0.257858 0.966179 0.002731
vn 0.000255 0.002348 -0.999997
vn -0.000120 0.002539 -0.999997
vn -0.000127 0.002548 -0.999997
vn 0.000255 0.002348 -0.999997
vn -0.000252 -0.005746 0.999983
vn -0.000252 -0.005746 0.999983
vn -0.000252 -0.005746 0.999983
vn -0.000252 -0.005746 0.999983
vn -0.000309 -0.002110 0.999998
vn -0.000496 -0.002497 0.999997
vn -0.000507 -0.002519 0.999997
vn -0.000254 -0.002078 0.999998
vn -0.000254 -0.002078 0.999998
vn 0.000058 -0.002429 0.999997
vn 0.000044 -0.002408 0.999997
vn -0.000200 -0.002045 0.999998
vn -0.000254 -0.002078 0.999998
vn -0.000254 -0.002078 0.999998
vn 0.046586 -0.998910 -0.002941
vn 0.046586 -0.998910 -0.002941
vn 0.046586 -0.998910 -0.002941
vn 0.046586 -0.998910 -0.002941
vn -0.049185 -0.998785 -0.002973
vn -0.049185 -0.998785 -0.002973
vn -0.049185 -0.998785 -0.002973
vn -0.049185 -0.998785 -0.002973
vn 0.285945 0.957400 -0.040261
vn 0.293199 0.954595 -0.052747
vn 0.293199 0.954595 -0.052747
vn 0.001306 0.999341 -0.036265
vn -0.290669 0.955352 -0.053056
vn -0.290669 0.955352 -0.053056
vn -0.283401 0.958145 -0.040533
vn 0.001306 0.999341 -0.036265
vn 0.000026 -0.003599 0.999994
vn 0.000026 -0.003599 0.999994
vn 0.000026 -0.003599 0.999994
vn 0.000026 -0.003599 0.999994
vn -0.000333 -0.003715 0.999993
vn -0.000333 -0.003715 0.999993
vn -0.000333 -0.003715 0.999993
vn -0.000333 -0.003715 0.999993
vn -0.919210 -0.393764 -0.001940
vn -0.919210 -0.393764 -0.001940
vn -0.919305 -0.393539 -0.002185
vn -0.919305 -0.393539 -0.002185
vn -0.282640 0.959211 0.005403
vn -0.282640 0.959211 0.005403
vn -0.282640 0.959211 0.005403
vn -0.282640 0.959211 0.005403
vn 0.925766 0.378093 0.001748
vn 0.925766 0.378093 0.001747
vn 0.925847 0.377892 0.002097
vn 0.925847 0.377892 0.002097
vn 0.342239 -0.939611 -0.002047
vn 0.342239 -0.939611 -0.002048
vn 0.342245 -0.939596 -0.005295
vn 0.342245 -0.939596 -0.005295
vn 0.902016 -0.431701 -0.001385
vn 0.902016 -0.431701 -0.001384
vn 0.902147 -0.431423 -0.002085
vn 0.902147 -0.431423 -0.002085
vn -0.351626 -0.936137 -0.002417
vn -0.351626 -0.936137 -0.002414
vn -0.351621 -0.936126 -0.005599
vn -0.351621 -0.936126 -0.005599
vn -0.914887 0.403708 0.001213
vn -0.914887 0.403708 0.001214
vn -0.914993 0.403465 0.001916
vn -0.914993 0.403465 0.001916
vn 0.303645 0.952768 0.005673
vn 0.303645 0.952768 0.005673
vn 0.303645 0.952768 0.005673
vn 0.303645 0.952768 0.005673
s off
g horseShoe_geo
usemtl horseShoe:initialShadingGroup
f 4/1/1 3/2/2 14/3/3 15/4/4
f 5/5/5 4/1/6 15/4/7 16/6/8
f 6/7/9 5/8/10 16/9/11 17/10/12
f 8/11/13 7/12/14 18/13/15 19/14/16
f 9/15/17 8/16/18 19/17/19 20/18/20
f 10/19/21 9/15/22 20/18/23 21/20/24
f 15/21/25 14/22/26 25/23/27 26/24/28
f 16/25/29 15/21/30 26/24/31 27/26/32
f 20/27/33 19/28/34 30/29/35 31/30/36
f 26/31/37 25/32/38 36/33/39 37/34/40
f 27/35/41 26/31/42 37/34/43 38/36/44
f 28/37/45 27/38/46 38/39/47 39/40/48
f 30/41/49 29/42/50 40/43/51 41/44/52
f 31/45/53 30/46/54 41/47/55 42/48/56
f 37/34/57 36/33/58 3/2/59 4/1/60
f 38/36/61 37/34/62 4/1/63 5/5/64
f 53/49/65 52/50/66 54/51/67 55/52/68
f 57/53/69 56/54/70 58/55/71 59/56/72
f 42/48/73 41/47/74 8/16/75 9/15/76
f 17/57/77 28/58/78 39/59/79 6/60/80
f 18/61/81 7/62/82 40/63/83 29/64/84
f 14/22/85 13/65/86 24/66/87 25/23/88
f 22/67/89 11/68/90 10/19/91 21/20/92
f 21/69/93 20/27/94 31/30/95 32/70/96
f 32/71/97 31/45/98 42/48/99 43/72/100
f 10/19/101 43/72/102 42/48/103 9/15/104
f 44/73/105 43/72/106 10/19/107 11/68/108
f 33/74/109 22/75/110 21/69/111 32/70/112
f 33/76/113 32/71/114 43/72/115 44/73/116
f 44/73/117 47/77/118 33/76/119
f 51/78/120 47/77/121 23/79/122 50/80/123
f 3/2/124 36/33/125 35/81/126 2/82/127
f 3/2/128 2/82/129 13/83/130 14/3/131
f 36/33/132 25/32/133 24/84/134 35/81/135
f 2/82/136 35/81/137 34/85/138 1/86/139
f 1/86/140 12/87/141 13/83/142 2/82/143
f 11/68/144 22/67/145 12/87/146 1/86/147
f 46/88/148 35/81/149 24/84/150
f 50/80/151 23/79/152 46/88/153 49/89/154
f 34/85/155 44/73/156 11/68/157 1/86/158
f 48/90/159 51/91/160 50/92/161 49/93/162
f 46/94/163 24/66/164 13/65/165 12/95/166 45/96/167
f 22/75/168 33/74/169 47/97/170 45/96/171 12/95/172
f 48/90/173 49/93/174 46/94/175 45/96/176
f 51/91/177 48/90/178 45/96/179 47/97/180
f 47/77/181 44/73/182 34/85/183 23/79/184
f 34/85/185 35/81/186 46/88/187 23/79/188
f 17/98/189 16/25/190 27/26/191 28/99/192
f 19/28/193 18/100/194 29/101/195 30/29/196
f 39/40/197 38/39/198 52/50/199 53/49/200
f 38/36/201 5/5/202 54/51/203 52/50/204
f 5/8/205 6/7/206 55/52/207 54/51/208
f 6/60/209 39/59/210 53/49/211 55/52/212
f 41/44/213 40/43/214 56/54/215 57/53/216
f 40/63/217 7/62/218 58/55/219 56/54/220
f 7/12/221 8/11/222 59/56/223 58/55/224
f 8/16/225 41/47/226 57/53/227 59/56/228
