%YAML 1.1
%TAG !u! tag:unity3d.com,2011:
--- !u!1 &100000
GameObject:
  m_ObjectHideFlags: 0
  m_PrefabParentObject: {fileID: 0}
  m_PrefabInternal: {fileID: 100100000}
  serializedVersion: 4
  m_Component:
  - 4: {fileID: 400000}
  - 114: {fileID: 11400000}
  m_Layer: 0
  m_Name: EndingMenuManager
  m_TagString: Untagged
  m_Icon: {fileID: 0}
  m_NavMeshLayer: 0
  m_StaticEditorFlags: 0
  m_IsActive: 1
--- !u!4 &400000
Transform:
  m_ObjectHideFlags: 1
  m_PrefabParentObject: {fileID: 0}
  m_PrefabInternal: {fileID: 100100000}
  m_GameObject: {fileID: 100000}
  m_LocalRotation: {x: 0, y: 0, z: 0, w: 1}
  m_LocalPosition: {x: 0, y: 0, z: 0}
  m_LocalScale: {x: 1, y: 1, z: 1}
  m_Children: []
  m_Father: {fileID: 0}
  m_RootOrder: 0
--- !u!114 &11400000
MonoBehaviour:
  m_ObjectHideFlags: 1
  m_PrefabParentObject: {fileID: 0}
  m_PrefabInternal: {fileID: 100100000}
  m_GameObject: {fileID: 100000}
  m_Enabled: 1
  m_EditorHideFlags: 0
  m_Script: {fileID: 11500000, guid: e09595a8c3a0f5642995e8bbf213c219, type: 3}
  m_Name: 
  m_EditorClassIdentifier: 
  signTexture: {fileID: 2800000, guid: 3b1d09e4e919bce408d63b68335edc54, type: 3}
  menuTexture: {fileID: 2800000, guid: 8fcdb52dfaf465745acfe480da4910dd, type: 3}
  replayOn: {fileID: 2800000, guid: 0f0511ffaae356a4e83090fa136f218f, type: 3}
  replayOff: {fileID: 2800000, guid: af9209d13289ddc44a7413d0b2ed1ac7, type: 3}
  canTexture: {fileID: 2800000, guid: 63a7804c6467c554ca1b74d592def37e, type: 3}
  gameFont: {fileID: 12800000, guid: 1f98a3f1b07fb3d439488a9b9ceceff7, type: 3}
--- !u!1001 &100100000
Prefab:
  m_ObjectHideFlags: 1
  serializedVersion: 2
  m_Modification:
    m_TransformParent: {fileID: 0}
    m_Modifications: []
    m_RemovedComponents: []
  m_ParentPrefab: {fileID: 0}
  m_RootGameObject: {fileID: 100000}
  m_IsPrefabParent: 1
  m_IsExploded: 1
