%YAML 1.1
%TAG !u! tag:unity3d.com,2011:
--- !u!114 &11400000
MonoBehaviour:
  m_ObjectHideFlags: 0
  m_PrefabParentObject: {fileID: 0}
  m_PrefabInternal: {fileID: 0}
  m_GameObject: {fileID: 0}
  m_Enabled: 1
  m_EditorHideFlags: 0
  m_Script: {fileID: 11500000, guid: 3d0c0342116464e26abb476a494c827a, type: 3}
  m_Name: GA_Settings
  m_EditorClassIdentifier: 
  TotalMessagesSubmitted: 0
  TotalMessagesFailed: 0
  DesignMessagesSubmitted: 0
  DesignMessagesFailed: 0
  QualityMessagesSubmitted: 0
  QualityMessagesFailed: 0
  ErrorMessagesSubmitted: 0
  ErrorMessagesFailed: 0
  BusinessMessagesSubmitted: 0
  BusinessMessagesFailed: 0
  UserMessagesSubmitted: 0
  UserMessagesFailed: 0
  CustomArea: 
  TrackTarget: {fileID: 0}
  GameKey: 771dbf7bac2fab6406f6138a25b8264c
  SecretKey: 018bcbb410190243756a085691ae5b85921d5196
  ApiKey: e9ec38f0f46382c383e3a5d71c8b0016a8c0c2aa
  Build: 0.1
  SignUpOpen: 0
  FirstName: 
  LastName: 
  StudioName: 
  GameName: Hot Shot Showoff
  PasswordConfirm: 
  EmailOptIn: 1
  EmailGA: michal.krolikowski1@gmail.com
  IntroScreen: 0
  DebugMode: 1
  DebugAddEvent: 0
  SendExampleGameDataToMyGame: 0
  RunInEditorPlayMode: 1
  UseBundleVersion: 0
  AllowRoaming: 1
  ArchiveData: 1
  NewSessionOnResume: 1
  AutoSubmitUserInfo: 1
  DelayQuitToSendData: 1
  HeatmapGridSize: {x: 1, y: 1, z: 1}
  CustomUserID: 0
  SubmitInterval: 10
  InternetConnectivity: 0
  Start_AlwaysShowAds: 1
  Start_TimePlayed: 0
  Start_Sessions: 0
  TimePlayed: 300
  Sessions: 1
  Trigger_AdsEnabled: 0
  Trigger_AdsEnabled_network: 0
  Trigger_SceneChange: 1
  Trigger_SceneChange_network: 0
  IAD_foldout: 1
  IAD_enabled: 1
  CB_enabled: 0
  IAD_type: 0
  IAD_layout: 0
  IAD_position: {x: 0, y: 0}
  IAD_Duration: 10
  CB_foldout: 1
  CB_appID: 
  CB_appSig: 
  CurrentInspectorState: 1
  ClosedHints: 
  DisplayHints: 0
  DisplayHintsScrollState: {x: 0, y: 0}
  Logo: {fileID: 2800000, guid: 98df8f9c5678a4e5d964caa1244e8958, type: 3}
  UpdateIcon: {fileID: 2800000, guid: 810bbb19deed24f3cb7b854f9bafde26, type: 3}
  CustomAdTriggers: []
